offers,95000
assistance,90000
improvement,9.9678e+06
gateways,9.8683e+07
walls,9.5e+05
equiptment,9.59e+06
audio,9.4524e+06
leading,9.4324e+06
friends,9.3723e+05
sidekick,9.2886e+07
aggregation,9.2061e+06
media,9.2059e+06
referral,9.1655e+06
powering,9.0414e+06
smarter,8e+06
clever,85000
uncover,8.8926e+06
creative,8.8782e+07
number,8.7235e+06
concierge,8.6829e+06
apm,8.532e+06
program,8.5274e+06
care,8.4774e+06
based,8.4334e+07
machinetomachine,8.4255e+06
age,8.3583e+07
engagement,8.3452e+05
quora,8.3445e+06
prepaid,8.2828e+06
pragmatic,8.2062e+05
rewardeduniversal,8.1856e+06
disrupted,8.1765e+06
together,8.13e+05
tracking,8.0875e+06
platform,8.0781e+06
industrial,8.0274e+06
customers,7.9987e+07
tool,7.9936e+07
financial,7.96e+06
pays,7.499e+06
travel,7.4422e+05
booking,7.3688e+07
nanoresonator,7.3623e+07
satellitebased,7.2985e+07
experience,7.2417e+07
chemistry,7.0995e+06
crm,7.0911e+07
savings,6e+05
apps,6.9083e+06
mobility,6.8372e+07
handset,6.7573e+07
platforms,6.667e+06
monetizing,6.6611e+07
deserve,6.5e+05
way,6.5199e+07
going,6.4e+06
product,6.4334e+06
adsponsored,6.3504e+06
nextgen,6.3384e+06
infrastructure,6.311e+07
acquisition,6.2508e+07
intelligence,6.2298e+05
carrierclass,6.2191e+07
organizer,6.2058e+07
fitness,6.0699e+06
communication,6.0015e+07
book,5e+05
reruns,5e+05
notes,5e+05
tweeting,50000
real,5000
donor,5.9137e+06
dashboard,5.8241e+07
events,5.7458e+06
p2p,5.7302e+06
isp,5.6805e+09
condense,5.5863e+06
payments,5.575e+06
navigation,5.5133e+07
tv,5.4867e+06
indoor,5.4325e+06
parking,5.3e+06
echeck,5.3828e+06
android,5.3805e+06
reinventing,5.3211e+06
unlimited,5.2721e+07
serving,5.262e+05
gaming,5.2195e+06
cloud,5.2107e+06
reality,5.1e+06
free,5.0396e+07
radio,5.026e+07
network,5.0136e+06
save,4e+06
manage,4e+05
family,4.9227e+07
website,4.806e+06
better,4.804e+08
market,4.6768e+06
powered,4.6182e+07
next,4.5e+06
healthcare,4.5972e+07
operator,4.4305e+07
discover,4.4042e+07
interest,4.3e+05
polling,4.3671e+05
store,4.3511e+07
decision,4.2902e+07
pricing,4.2664e+07
meeting,4.2531e+08
simple,4.2523e+08
telecommunications,4.1e+05
easy,4.1565e+08
life,4.1396e+07
facebook,4.0094e+07
driver,3e+06
casting,3.9206e+07
simpler,3.8714e+08
powerful,3.8533e+06
search,3.7808e+07
2d,3.7199e+06
operations,3.6781e+06
city,3.6083e+06
weather,3.607e+06
pay,3.5e+06
specialist,3.5102e+08
provider,3.4266e+07
communities,3.4122e+06
ip,3.4002e+07
turnkey,3.3831e+07
products,3.3772e+07
networks,3.375e+07
effortless,3.3669e+06
widget,3.2604e+06
ios,3.2299e+06
nagivation,3.2263e+07
integrated,3.168e+06
security,3.1585e+06
moments,3.1088e+06
voip,3.105e+07
geotargeted,3.082e+07
create,3.066e+07
lbs,3.036e+07
group,3.009e+07
plans,2e+05
during,20000
effective,20000
paas,20000
exercise,20000
bowling,2.9e+05
delivery,2.9893e+07
voice,2.9702e+07
wimedia,2.9622e+07
reminders,2.9589e+07
equipment,2.908e+07
device,2.9031e+07
safety,2.9011e+07
home,2.8078e+07
music,2.8074e+07
meets,2.7604e+07
talkie,2.7571e+07
find,2.7458e+07
asset,2.7434e+07
pingpong,2.7284e+07
sharing,2.7197e+07
parties,2.7193e+07
aggregate,2.6817e+08
ambient,2.6728e+06
calendar,2.6682e+07
student,2.6662e+07
connectivity,2.6596e+07
mms,2.6217e+07
closer,2.6165e+07
places,2.5e+05
turn,2.5e+05
enough,2.58e+05
solutions,2.5878e+07
elegant,2.5853e+08
results,2.5597e+07
enterpri,2.5566e+08
solution,2.5354e+06
enabled,2.5178e+07
numbers,2.5137e+08
recording,2.5097e+07
connecting,2.4759e+08
banking,2.4645e+07
machine,2.4314e+06
systems,2.41e+08
noise,2.4195e+06
w,2.4189e+08
ipad,2.4065e+07
photoediting,2.3994e+07
cell,2.3599e+08
data,2.3104e+07
transform,2.2938e+07
convergence,2.292e+07
translation,2.2773e+08
world,2.2766e+07
stories,2.2182e+06
access,2.2159e+08
touch,2.1e+06
fixedwireless,2.1835e+08
phone,2.1789e+06
pointofcare,2.1736e+08
calls,2.1596e+08
users,2.1586e+07
chat,2.1324e+08
voicepowered,2.112e+05
textplus,2.1015e+08
news,2.0925e+06
4g,2.0829e+06
party,2.0818e+06
dating,2.0762e+07
rtb,2.0539e+07
taxi,2.052e+08
messaging,2.0523e+07
sports,2.0476e+07
globally,2.0287e+06
connect,1e+06
entertainment,1e+06
more,1e+06
scrapbooking,15000
social,13294
rewards,1.9668e+06
app,1.9647e+06
wireless,1.9473e+07
toys,1.9295e+08
mobilewireless,1.9148e+07
patents,1.8e+07
daily,1.8858e+07
receipts,1.8399e+06
wait,1.823e+07
first,1.8238e+07
maas,1.8139e+07
opening,1.8021e+07
management,1.7853e+07
networking,1.7837e+07
payment,1.7485e+07
software,1.7336e+07
miss,1.7168e+08
ringtones,1.7069e+06
mapping,1.7047e+07
highlight,1.6857e+07
teen,1.6851e+07
deployment,1.6555e+07
betting,1.6448e+05
around,1.6389e+08
electronics,1.5e+07
collaboration,1.5e+06
beastmodefm,1.5e+05
virtual,1.5905e+07
antennae,1.5882e+08
marketplace,1.5376e+08
workouts,1.5252e+07
optimiz,1.5054e+07
advertising,1.5049e+07
house,1.4822e+07
vendor,1.4807e+08
tasks,1.4592e+08
venue,1.4207e+07
selfcheckout,1.4195e+06
telcoott,1.3568e+07
consumer,1.3432e+08
visualization,1.3254e+07
system,1.3211e+08
global,1.3083e+07
devices,1.2863e+08
demand,1.2529e+07
fabless,1.2402e+08
coupons,1.2396e+07
broadcast,1.2197e+07
information,1.2132e+08
player,1.2035e+07
tech,1.1848e+06
frictionless,1.1845e+07
marketing,1.1777e+07
microvolunteering,1.1365e+07
redemption,1.1152e+07
api,1.1093e+07
conferencing,1.1061e+07
facetoface,1.0718e+08
trade,1.0672e+07
inbuilding,1.0565e+07
syncronization,1.0411e+08
developer,1.0408e+07
manufacturer,1.0407e+08
point,1.0265e+07
mobile,1.008e+07
team,1.008e+07
augmented,0
time,0
beverage,0
adsupported,0
yelp,0
billion,0
brands,0
generated,0
prepared,0
kairos,0
picture,0
physical,0
single,0
cms,0
sales,0
socialmobilegeolocation,0
uber,0
bluestacks,0
minutes,0
record,0
dmp,0
wish,0
selfservice,0
hail,0
notifications,0
direct,0
airports,0
chats,0
call,0
webbased,0
crowd,0
travelers,0
fundraising,0
paper,0
communicate,0
bo,0
converts,0
patient,0
leader,0
chains,0
memories,0
windows,0
old,0
donations,0
cognitive,0
developers,0
advanced,0
grid,0
game,0
preview,0
roadside,0
transit,0
garage,0
blog,0
engage,0
guides,0
alternative,0
via,0
competitive,0
noah,0
meet,0
multiplatform,0
synchonization,0
stack,0
director,0
workforce,0
practice,0
nextgeneration,0
everyday,0
tapandgo,0
reports,0
experts,0
site,0
listen,0
fun,0
value,0
polls,0
developing,0
sell,0
paying,0
netwo,0
pc,0
whos,0
consultancy,0
stamp,0
mobilization,0
approval,0
learning,0
agents,0
reborn,0
innovations,0
pos,0
pda,0
whole,0
context,0
tour,0
presentations,0
restaurant,0
providing,0
impromptu,0
interface,0
succeed,0
personalize,0
focus,0
creating,0
jobs,0
before,0
assistants,0
phonetell,0
bookmarking,0
fans,0
ways,0
dicovery,0
project,0
best,0
close,0
wideband,0
cleu,0
testing,0
wiki,0
reels,0
teams,0
motion,0
international,0
fraud,0
mission,0
ranking,0
employee,0
money,0
hd,0
busy,0
carsharing,0
planning,0
softwarebased,0
tagging,0
golf,0
advisory,0
shop,0
occasion,0
disease,0
flow,0
alarm,0
environmental,0
entry,0
transactions,0
finding,0
convenient,0
ratings,0
need,0
raw,0
navigate,0
hacking,0
light,0
geotagged,0
future,0
mangement,0
wishlist,0
somewhat,0
park,0
filter,0
branding,0
ipadiphone,0
guest,0
instagram,0
endemic,0
ecommerce,0
message,0
strategic,0
redefine,0
saving,0
creates,0
keep,0
language,0
onthego,0
20,0
print,0
invi,0
re,0
driving,0
happen,0
lan,0
generation,0
everyone,0
personalizationanalytics,0
unpredictable,0
chronic,0
easily,0
scene,0
socially,0
safe,0
auto,0
food,0
3,0
crash,0
easier,0
contextual,0
analyticsretargeting,0
highlights,0
seemore,0
animated,0
whats,0
motivation,0
soon,0
exclusive,0
talk,0
ultimate,0
broadcasting,0
remember,0
nonprofit,0
hackable,0
coming,0
kickstarter,0
economy,0
maps,0
1,0
monitoring,0
enablement,0
scheduling,0
firm,0
tag,0
wallet,0
purchases,0
making,0
gifting,0
anywhere,0
dialer,0
work,0
word,0
everywhere,0
brings,0
micro,0
comparison,0
posting,0
incredibly,0
prep,0
geomobile,0
texting,0
use,0
platfor,0
geoblogging,0
walkie,0
incar,0
compliance,0
ultra,0
conversational,0
address,0
sustainability,0
never,0
connected,0
retention,0
capital,0
multitouch,0
clock,0
consumers,0
makers,0
expense,0
enhancement,0
rate,0
sharinginteraction,0
bill,0
prevent,0
logistics,0
geospatial,0
solved,0
list,0
locationsensitive,0
magic,0
cool,0
uwb,0
premium,0
fax,0
presentation,0
supplies,0
helps,0
flash,0
tweet,0
graph,0
m2m,0
curating,0
semiconductor,0
relationships,0
competition,0
decisions,0
skit,0
advertisersponsored,0
tribes,-9e+05
serendipity,-9.8938e+06
deals,-9.7305e+06
wedding,-9.6471e+05
neighborhood,-9.6471e+05
shopper,-9.5727e+06
finance,-9.4122e+06
mem,-9.335e+07
analytics,-9.3305e+06
monetization,-9.1586e+06
automated,-9.0824e+06
communications,-9.0805e+06
traffic,-80471
test,-8.956e+06
service,-8.9309e+06
retargeting,-8.8805e+06
connections,-8.8726e+06
builds,-8.823e+06
ticketing,-8.7555e+06
proximity,-8.7304e+06
saasbased,-8.5505e+06
beauty,-8.2808e+07
field,-8.2034e+06
publishing,-8.1912e+06
modbile,-8.175e+06
loyalty,-8.1456e+06
restaurants,-8.0967e+07
startup,-8.0942e+07
unified,-8.0606e+06
alertsdeals,-7.9534e+07
user,-7.8497e+07
object,-7.8264e+06
content,-7.8201e+06
oneclick,-7.7455e+06
photography,-7.6379e+06
videomessage,-7.5805e+06
pointofsale,-7.5531e+06
wifi,-7.495e+07
digital,-7.4578e+06
peer,-7.422e+06
updates,-7.4162e+06
construction,-7.404e+06
installing,-7.2781e+07
manager,-7.2451e+06
new,-7.2142e+07
sdk,-6.9942e+06
shopping,-6.8495e+06
actionable,-6.8197e+07
dsp,-6.8047e+05
workforces,-6.7595e+07
personal,-6.7591e+07
html5,-6.509e+07
inbox,-6.4023e+06
fixing,-6.3942e+06
lte4g,-6.241e+07
web,-6.2384e+06
coupon,-6.2332e+06
foursquare,-6.1657e+06
schedule,-6.128e+07
calling,-5.9976e+07
application,-5.9496e+06
storefronts,-5.9489e+06
games,-5.8707e+06
b2b,-5.8606e+06
carrier,-5.8098e+07
repair,-5.5207e+06
capture,-5.4557e+08
cloudbased,-5.2831e+07
realtime,-5.201e+07
email,-5.1805e+06
small,-4.9932e+06
spoken,-4.9771e+07
predictions,-4.9309e+07
customer,-4.8917e+06
responsive,-4.8779e+07
steroids,-4.8671e+05
capability,-4.8058e+07
relationship,-4.7781e+06
make,-4.7134e+08
personalized,-4.6499e+06
avatar,-4.5919e+06
automotive,-4.4924e+07
assistant,-4.4284e+07
follow,-4.4249e+05
telecom,-4.416e+07
design,-4.3646e+06
fast,-4.3516e+08
affordable,-4.2644e+08
productivity,-4.2521e+08
instant,-4.2431e+07
made,-4.2423e+08
transfers,-4.2373e+08
onetouch,-4.228e+08
engine,-4.2152e+07
location,-4.1825e+06
added,-4.1516e+07
bills,-4.149e+08
screenshots,-4.1301e+07
education,-4.1258e+06
outsourcing,-4.1236e+06
smartphone,-4.0728e+06
locationbased,-4.0566e+06
acceleration,-4.0336e+06
event,-4.024e+07
nightlife,-3.9994e+07
built,-3.9594e+07
retail,-3.9446e+07
rtls,-3.7461e+07
private,-3.7077e+07
fleet,-3.6011e+07
saas,-3.5606e+07
technology,-3.4699e+06
community,-3.4328e+06
interestbased,-3.3269e+06
collection,-3.3015e+07
managment,-3.2703e+07
commerce,-3.2485e+06
local,-3.2431e+07
concept,-3.2349e+07
visual,-3.2268e+07
collect,-3.2088e+07
sensing,-3.2072e+07
pointofservice,-3.1759e+07
fantasy,-3.1091e+07
metrics,-3.0805e+06
eyewear,-3.0186e+07
sync,-3.0127e+07
stuff,-2.9e+05
objectivec,-2.9805e+06
analysis,-2.9244e+06
services,-2.8247e+06
everything,-2.757e+07
lifestyle,-2.7383e+07
twitter,-2.7374e+07
photo,-2.7209e+07
people,-2.7163e+07
photos,-2.6617e+07
conference,-2.6536e+08
beautiful,-2.6447e+07
programmatic,-2.6185e+07
reporting,-2.6103e+06
video,-2.5863e+06
handsfree,-2.5728e+07
resource,-2.5469e+07
antenna,-2.5378e+07
workplace,-2.5103e+07
secondscreen,-2.5067e+07
bringing,-2.4965e+07
streaming,-2.4597e+07
backhaul,-2.4547e+08
prescription,-2.4354e+06
endtoend,-2.397e+08
phones,-2.3777e+08
multimedia,-2.3746e+06
eprescribing,-2.3522e+07
native,-2.3254e+07
critical,-2.3181e+08
sensor,-2.2993e+07
blueprints,-2.2965e+07
without,-2.2716e+07
assessment,-2.2301e+07
wimax,-2.22e+08
businesses,-2.2005e+08
roaming,-2.1959e+07
meaningful,-2.1193e+08
programs,-2.1164e+08
task,-2.1098e+07
power,-2.1043e+07
ride,-2.1006e+07
vanity,-2.0665e+08
finder,-2.0618e+06
bring,-2.0436e+07
discovery,-2.0426e+07
alications,-2.0299e+06
button,-2.0271e+07
brand,-2.0257e+07
recognition,-2.0232e+07
live,-2.0036e+07
multicultural,-1.9857e+07
put,-1.9766e+07
transportation,-1.9765e+07
creation,-1.9723e+07
pages,-1.9522e+08
promotion,-1.9275e+07
wellness,-1.9205e+07
agriculture,-1.909e+07
mcommerce,-1.8878e+07
cards,-1.8848e+06
threats,-1.8688e+07
ad,-1.8476e+05
smart,-1.8458e+08
camera,-1.8175e+07
gift,-1.8149e+06
advocacy,-1.8135e+07
fertility,-1.8134e+07
internet,-1.7901e+07
targeting,-1.7436e+07
nfc,-1.7386e+07
inspection,-1.7309e+07
immersive,-1.71e+07
deal,-1.7167e+08
growth,-1.7159e+07
transactional,-1.7147e+06
library,-1.7101e+08
industry,-1.6996e+07
educational,-1.6964e+07
audience,-1.6931e+06
managers,-1.6739e+07
components,-1.65e+08
business,-1.6584e+07
rfid,-1.6576e+07
custom,-1.6453e+07
creators,-1.6383e+08
students,-1.6239e+07
videos,-1.6169e+06
online,-1.6116e+07
enterpriseclass,-1.5959e+07
share,-1.5889e+07
tools,-1.5842e+06
incubates,-1.5789e+07
3g,-1.5703e+07
merchandising,-1.5701e+07
targeted,-1.5629e+07
cash,-1.5606e+07
distribution,-1.5455e+07
health,-1.4826e+08
ordering,-1.4757e+07
sale,-1.4647e+06
apis,-1.4536e+07
ondemand,-1.4481e+06
rich,-1.4286e+07
vod,-1.4173e+08
enterprise,-1.4044e+07
innovative,-1.402e+07
distracted,-1.3986e+07
mouth,-1.3897e+06
maker,-1.3536e+06
peertopeer,-1.3473e+08
urban,-1.3281e+06
broadband,-1.3263e+07
building,-1.3061e+07
measurements,-1.2864e+06
gps,-1.2628e+06
performance,-1.2606e+07
sms,-1.2474e+07
automation,-1.2351e+08
improving,-1.22e+08
guide,-1.2155e+05
simplified,-1.2039e+07
kids,-1.1985e+07
hyperlocal,-1.1677e+07
aware,-1.1648e+07
dayoftravel,-1.1647e+06
applications,-1.1622e+07
utility,-1.1576e+08
text,-1.1532e+07
buying,-1.1431e+07
iphone,-1.111e+05
contact,-1.1019e+08
exchange,-1.0935e+07
trusted,-1.0655e+07
humanlike,-1.0643e+07
development,-1.0499e+07
liveexperience,-1.0497e+07
trash,-1.0467e+07
company,-1.0265e+07
optimization,-1.0255e+07
celebrity,-1.0192e+07
replacement,-1.0178e+07
agency,-1.0069e+07
innovation,-1.005e+07
goto,-1.003e+07
interactive,-1.0038e+07
